(module Harwin_M55-60x1242R_2x06_P1.27mm_Vertical (layer F.Cu) (tedit 5F8F6726)
  (descr "Harwin Female Vertical Surface Mount Dual Row 1.27mm (0.05 inch) Pitch PCB Connector, M55-60x1242R, 12 Pins per row (https://cdn.harwin.com/pdfs/M55-60X.pdf), generated with kicad-footprint-generator")
  (tags "connector Harwin M55-60 vertical")
  (attr smd)
  (fp_text reference REF** (at 0 -7.55) (layer F.SilkS)
    (effects (font (size 1 1) (thickness 0.15)))
  )
  (fp_text value Harwin_M55-60x1242R_2x06_P1.27mm_Vertical (at 0 7.55) (layer F.Fab)
    (effects (font (size 1 1) (thickness 0.15)))
  )
  (fp_line (start -2.1 -5.67) (end -2.1 5.67) (layer F.Fab) (width 0.1))
  (fp_line (start -2.1 5.67) (end 2.1 5.67) (layer F.Fab) (width 0.1))
  (fp_line (start 2.1 5.67) (end 2.1 -5.67) (layer F.Fab) (width 0.1))
  (fp_line (start 2.1 -5.67) (end -2.1 -5.67) (layer F.Fab) (width 0.1))
  (fp_line (start -2.1 -2.775) (end -1.7 -3.175) (layer F.Fab) (width 0.1))
  (fp_line (start -1.7 -3.175) (end -2.1 -3.575) (layer F.Fab) (width 0.1))
  (fp_line (start -0.885 -3.425) (end -0.885 -2.925) (layer F.Fab) (width 0.1))
  (fp_line (start -0.885 -2.925) (end -0.385 -2.925) (layer F.Fab) (width 0.1))
  (fp_line (start -0.385 -2.925) (end -0.385 -3.425) (layer F.Fab) (width 0.1))
  (fp_line (start -0.385 -3.425) (end -0.885 -3.425) (layer F.Fab) (width 0.1))
  (fp_line (start 0.385 -3.425) (end 0.385 -2.925) (layer F.Fab) (width 0.1))
  (fp_line (start 0.385 -2.925) (end 0.885 -2.925) (layer F.Fab) (width 0.1))
  (fp_line (start 0.885 -2.925) (end 0.885 -3.425) (layer F.Fab) (width 0.1))
  (fp_line (start 0.885 -3.425) (end 0.385 -3.425) (layer F.Fab) (width 0.1))
  (fp_line (start -0.885 -2.155) (end -0.885 -1.655) (layer F.Fab) (width 0.1))
  (fp_line (start -0.885 -1.655) (end -0.385 -1.655) (layer F.Fab) (width 0.1))
  (fp_line (start -0.385 -1.655) (end -0.385 -2.155) (layer F.Fab) (width 0.1))
  (fp_line (start -0.385 -2.155) (end -0.885 -2.155) (layer F.Fab) (width 0.1))
  (fp_line (start 0.385 -2.155) (end 0.385 -1.655) (layer F.Fab) (width 0.1))
  (fp_line (start 0.385 -1.655) (end 0.885 -1.655) (layer F.Fab) (width 0.1))
  (fp_line (start 0.885 -1.655) (end 0.885 -2.155) (layer F.Fab) (width 0.1))
  (fp_line (start 0.885 -2.155) (end 0.385 -2.155) (layer F.Fab) (width 0.1))
  (fp_line (start -0.885 -0.885) (end -0.885 -0.385) (layer F.Fab) (width 0.1))
  (fp_line (start -0.885 -0.385) (end -0.385 -0.385) (layer F.Fab) (width 0.1))
  (fp_line (start -0.385 -0.385) (end -0.385 -0.885) (layer F.Fab) (width 0.1))
  (fp_line (start -0.385 -0.885) (end -0.885 -0.885) (layer F.Fab) (width 0.1))
  (fp_line (start 0.385 -0.885) (end 0.385 -0.385) (layer F.Fab) (width 0.1))
  (fp_line (start 0.385 -0.385) (end 0.885 -0.385) (layer F.Fab) (width 0.1))
  (fp_line (start 0.885 -0.385) (end 0.885 -0.885) (layer F.Fab) (width 0.1))
  (fp_line (start 0.885 -0.885) (end 0.385 -0.885) (layer F.Fab) (width 0.1))
  (fp_line (start -0.885 0.385) (end -0.885 0.885) (layer F.Fab) (width 0.1))
  (fp_line (start -0.885 0.885) (end -0.385 0.885) (layer F.Fab) (width 0.1))
  (fp_line (start -0.385 0.885) (end -0.385 0.385) (layer F.Fab) (width 0.1))
  (fp_line (start -0.385 0.385) (end -0.885 0.385) (layer F.Fab) (width 0.1))
  (fp_line (start 0.385 0.385) (end 0.385 0.885) (layer F.Fab) (width 0.1))
  (fp_line (start 0.385 0.885) (end 0.885 0.885) (layer F.Fab) (width 0.1))
  (fp_line (start 0.885 0.885) (end 0.885 0.385) (layer F.Fab) (width 0.1))
  (fp_line (start 0.885 0.385) (end 0.385 0.385) (layer F.Fab) (width 0.1))
  (fp_line (start -0.885 1.655) (end -0.885 2.155) (layer F.Fab) (width 0.1))
  (fp_line (start -0.885 2.155) (end -0.385 2.155) (layer F.Fab) (width 0.1))
  (fp_line (start -0.385 2.155) (end -0.385 1.655) (layer F.Fab) (width 0.1))
  (fp_line (start -0.385 1.655) (end -0.885 1.655) (layer F.Fab) (width 0.1))
  (fp_line (start 0.385 1.655) (end 0.385 2.155) (layer F.Fab) (width 0.1))
  (fp_line (start 0.385 2.155) (end 0.885 2.155) (layer F.Fab) (width 0.1))
  (fp_line (start 0.885 2.155) (end 0.885 1.655) (layer F.Fab) (width 0.1))
  (fp_line (start 0.885 1.655) (end 0.385 1.655) (layer F.Fab) (width 0.1))
  (fp_line (start -0.885 2.925) (end -0.885 3.425) (layer F.Fab) (width 0.1))
  (fp_line (start -0.885 3.425) (end -0.385 3.425) (layer F.Fab) (width 0.1))
  (fp_line (start -0.385 3.425) (end -0.385 2.925) (layer F.Fab) (width 0.1))
  (fp_line (start -0.385 2.925) (end -0.885 2.925) (layer F.Fab) (width 0.1))
  (fp_line (start 0.385 2.925) (end 0.385 3.425) (layer F.Fab) (width 0.1))
  (fp_line (start 0.385 3.425) (end 0.885 3.425) (layer F.Fab) (width 0.1))
  (fp_line (start 0.885 3.425) (end 0.885 2.925) (layer F.Fab) (width 0.1))
  (fp_line (start 0.885 2.925) (end 0.385 2.925) (layer F.Fab) (width 0.1))
  (fp_line (start 1.5 -4.81) (end 1.5 4.81) (layer F.Fab) (width 0.1))
  (fp_line (start 1.5 4.81) (end 0.1 4.81) (layer F.Fab) (width 0.1))
  (fp_line (start 0.1 4.81) (end 0.1 4.21) (layer F.Fab) (width 0.1))
  (fp_line (start 0.1 4.21) (end -1.5 4.21) (layer F.Fab) (width 0.1))
  (fp_line (start -1.5 4.21) (end -1.5 -4.21) (layer F.Fab) (width 0.1))
  (fp_line (start -1.5 -4.21) (end 0.1 -4.21) (layer F.Fab) (width 0.1))
  (fp_line (start 0.1 -4.21) (end 0.1 -4.81) (layer F.Fab) (width 0.1))
  (fp_line (start 0.1 -4.81) (end 1.5 -4.81) (layer F.Fab) (width 0.1))
  (fp_line (start -3.65 -3.675) (end -3.65 -4.445) (layer F.SilkS) (width 0.12))
  (fp_line (start -3.65 -2.675) (end -3.65 4.445) (layer F.SilkS) (width 0.12))
  (fp_line (start 3.65 4.445) (end 3.65 -4.445) (layer F.SilkS) (width 0.12))
  (fp_line (start -3.62 -3.175) (end -4.02 -3.575) (layer F.SilkS) (width 0.12))
  (fp_line (start -4.02 -3.575) (end -4.02 -2.775) (layer F.SilkS) (width 0.12))
  (fp_line (start -4.02 -2.775) (end -3.62 -3.175) (layer F.SilkS) (width 0.12))
  (fp_line (start -4.1 -6.85) (end 4.1 -6.85) (layer F.CrtYd) (width 0.05))
  (fp_line (start 4.1 -6.85) (end 4.1 6.85) (layer F.CrtYd) (width 0.05))
  (fp_line (start 4.1 6.85) (end -4.1 6.85) (layer F.CrtYd) (width 0.05))
  (fp_line (start -4.1 6.85) (end -4.1 -6.85) (layer F.CrtYd) (width 0.05))
  (pad 2 smd rect (at 2.75 -3.175) (size 1.1 0.8) (layers F.Cu F.Mask F.Paste))
  (pad 4 smd rect (at 2.75 -1.905) (size 1.1 0.8) (layers F.Cu F.Mask F.Paste))
  (pad 6 smd rect (at 2.75 -0.635) (size 1.1 0.8) (layers F.Cu F.Mask F.Paste))
  (pad 8 smd rect (at 2.75 0.635) (size 1.1 0.8) (layers F.Cu F.Mask F.Paste))
  (pad 10 smd rect (at 2.75 1.905) (size 1.1 0.8) (layers F.Cu F.Mask F.Paste))
  (pad 12 smd rect (at 2.75 3.175) (size 1.1 0.8) (layers F.Cu F.Mask F.Paste))
  (pad 1 smd rect (at -2.75 -3.175) (size 1.1 0.8) (layers F.Cu F.Mask F.Paste))
  (pad 3 smd rect (at -2.75 -1.905) (size 1.1 0.8) (layers F.Cu F.Mask F.Paste))
  (pad 5 smd rect (at -2.75 -0.635) (size 1.1 0.8) (layers F.Cu F.Mask F.Paste))
  (pad 7 smd rect (at -2.75 0.635) (size 1.1 0.8) (layers F.Cu F.Mask F.Paste))
  (pad 9 smd rect (at -2.75 1.905) (size 1.1 0.8) (layers F.Cu F.Mask F.Paste))
  (pad 11 smd rect (at -2.75 3.175) (size 1.1 0.8) (layers F.Cu F.Mask F.Paste))
  (pad "" np_thru_hole circle (at 0 -5.385) (size 1.65 1.65) (drill 1.65) (layers *.Cu *.Mask))
  (pad "" np_thru_hole circle (at 0 5.385) (size 1.65 1.65) (drill 1.65) (layers *.Cu *.Mask))
  (pad "" smd rect (at 2.45 -5.67) (size 2.7 1.2) (layers F.Cu F.Mask F.Paste))
  (pad "" smd rect (at -2.45 -5.67) (size 2.7 1.2) (layers F.Cu F.Mask F.Paste))
  (pad "" smd rect (at 2.45 5.67) (size 2.7 1.2) (layers F.Cu F.Mask F.Paste))
  (pad "" smd rect (at -2.45 5.67) (size 2.7 1.2) (layers F.Cu F.Mask F.Paste))
  (fp_text user %R (at 2.9 0 90) (layer F.Fab)
    (effects (font (size 1 1) (thickness 0.15)))
  )
  (model ${KISYS3DMOD}/Connector_Harwin.3dshapes/Harwin_M55-60x1242R_2x06_P1.27mm_Vertical.wrl
    (at (xyz 0 0 0))
    (scale (xyz 1 1 1))
    (rotate (xyz 0 0 0))
  )
)