(module Harwin_M55-70x5042R_2x25_P1.27mm_Vertical (layer F.Cu) (tedit 5F8F6723)
  (descr "Harwin Male Vertical Surface Mount Dual Row 1.27mm (0.05 inch) Pitch PCB Connector, M55-70x5042R, 50 Pins per row (https://cdn.harwin.com/pdfs/M55-70X.pdf), generated with kicad-footprint-generator")
  (tags "connector Harwin M55-70 vertical")
  (attr smd)
  (fp_text reference REF** (at 0 -19.61) (layer F.SilkS)
    (effects (font (size 1 1) (thickness 0.15)))
  )
  (fp_text value Harwin_M55-70x5042R_2x25_P1.27mm_Vertical (at 0 19.61) (layer F.Fab)
    (effects (font (size 1 1) (thickness 0.15)))
  )
  (fp_line (start -2.1 -17.735) (end -2.1 17.735) (layer F.Fab) (width 0.1))
  (fp_line (start -2.1 17.735) (end 2.1 17.735) (layer F.Fab) (width 0.1))
  (fp_line (start 2.1 17.735) (end 2.1 -17.735) (layer F.Fab) (width 0.1))
  (fp_line (start 2.1 -17.735) (end -2.1 -17.735) (layer F.Fab) (width 0.1))
  (fp_line (start 2.1 -14.84) (end 1.7 -15.24) (layer F.Fab) (width 0.1))
  (fp_line (start 1.7 -15.24) (end 2.1 -15.64) (layer F.Fab) (width 0.1))
  (fp_line (start -0.735 -15.34) (end -0.735 -15.14) (layer F.Fab) (width 0.1))
  (fp_line (start -0.735 -15.14) (end -0.535 -15.14) (layer F.Fab) (width 0.1))
  (fp_line (start -0.535 -15.14) (end -0.535 -15.34) (layer F.Fab) (width 0.1))
  (fp_line (start -0.535 -15.34) (end -0.735 -15.34) (layer F.Fab) (width 0.1))
  (fp_line (start 0.535 -15.34) (end 0.535 -15.14) (layer F.Fab) (width 0.1))
  (fp_line (start 0.535 -15.14) (end 0.735 -15.14) (layer F.Fab) (width 0.1))
  (fp_line (start 0.735 -15.14) (end 0.735 -15.34) (layer F.Fab) (width 0.1))
  (fp_line (start 0.735 -15.34) (end 0.535 -15.34) (layer F.Fab) (width 0.1))
  (fp_line (start -0.735 -14.07) (end -0.735 -13.87) (layer F.Fab) (width 0.1))
  (fp_line (start -0.735 -13.87) (end -0.535 -13.87) (layer F.Fab) (width 0.1))
  (fp_line (start -0.535 -13.87) (end -0.535 -14.07) (layer F.Fab) (width 0.1))
  (fp_line (start -0.535 -14.07) (end -0.735 -14.07) (layer F.Fab) (width 0.1))
  (fp_line (start 0.535 -14.07) (end 0.535 -13.87) (layer F.Fab) (width 0.1))
  (fp_line (start 0.535 -13.87) (end 0.735 -13.87) (layer F.Fab) (width 0.1))
  (fp_line (start 0.735 -13.87) (end 0.735 -14.07) (layer F.Fab) (width 0.1))
  (fp_line (start 0.735 -14.07) (end 0.535 -14.07) (layer F.Fab) (width 0.1))
  (fp_line (start -0.735 -12.8) (end -0.735 -12.6) (layer F.Fab) (width 0.1))
  (fp_line (start -0.735 -12.6) (end -0.535 -12.6) (layer F.Fab) (width 0.1))
  (fp_line (start -0.535 -12.6) (end -0.535 -12.8) (layer F.Fab) (width 0.1))
  (fp_line (start -0.535 -12.8) (end -0.735 -12.8) (layer F.Fab) (width 0.1))
  (fp_line (start 0.535 -12.8) (end 0.535 -12.6) (layer F.Fab) (width 0.1))
  (fp_line (start 0.535 -12.6) (end 0.735 -12.6) (layer F.Fab) (width 0.1))
  (fp_line (start 0.735 -12.6) (end 0.735 -12.8) (layer F.Fab) (width 0.1))
  (fp_line (start 0.735 -12.8) (end 0.535 -12.8) (layer F.Fab) (width 0.1))
  (fp_line (start -0.735 -11.53) (end -0.735 -11.33) (layer F.Fab) (width 0.1))
  (fp_line (start -0.735 -11.33) (end -0.535 -11.33) (layer F.Fab) (width 0.1))
  (fp_line (start -0.535 -11.33) (end -0.535 -11.53) (layer F.Fab) (width 0.1))
  (fp_line (start -0.535 -11.53) (end -0.735 -11.53) (layer F.Fab) (width 0.1))
  (fp_line (start 0.535 -11.53) (end 0.535 -11.33) (layer F.Fab) (width 0.1))
  (fp_line (start 0.535 -11.33) (end 0.735 -11.33) (layer F.Fab) (width 0.1))
  (fp_line (start 0.735 -11.33) (end 0.735 -11.53) (layer F.Fab) (width 0.1))
  (fp_line (start 0.735 -11.53) (end 0.535 -11.53) (layer F.Fab) (width 0.1))
  (fp_line (start -0.735 -10.26) (end -0.735 -10.06) (layer F.Fab) (width 0.1))
  (fp_line (start -0.735 -10.06) (end -0.535 -10.06) (layer F.Fab) (width 0.1))
  (fp_line (start -0.535 -10.06) (end -0.535 -10.26) (layer F.Fab) (width 0.1))
  (fp_line (start -0.535 -10.26) (end -0.735 -10.26) (layer F.Fab) (width 0.1))
  (fp_line (start 0.535 -10.26) (end 0.535 -10.06) (layer F.Fab) (width 0.1))
  (fp_line (start 0.535 -10.06) (end 0.735 -10.06) (layer F.Fab) (width 0.1))
  (fp_line (start 0.735 -10.06) (end 0.735 -10.26) (layer F.Fab) (width 0.1))
  (fp_line (start 0.735 -10.26) (end 0.535 -10.26) (layer F.Fab) (width 0.1))
  (fp_line (start -0.735 -8.99) (end -0.735 -8.79) (layer F.Fab) (width 0.1))
  (fp_line (start -0.735 -8.79) (end -0.535 -8.79) (layer F.Fab) (width 0.1))
  (fp_line (start -0.535 -8.79) (end -0.535 -8.99) (layer F.Fab) (width 0.1))
  (fp_line (start -0.535 -8.99) (end -0.735 -8.99) (layer F.Fab) (width 0.1))
  (fp_line (start 0.535 -8.99) (end 0.535 -8.79) (layer F.Fab) (width 0.1))
  (fp_line (start 0.535 -8.79) (end 0.735 -8.79) (layer F.Fab) (width 0.1))
  (fp_line (start 0.735 -8.79) (end 0.735 -8.99) (layer F.Fab) (width 0.1))
  (fp_line (start 0.735 -8.99) (end 0.535 -8.99) (layer F.Fab) (width 0.1))
  (fp_line (start -0.735 -7.72) (end -0.735 -7.52) (layer F.Fab) (width 0.1))
  (fp_line (start -0.735 -7.52) (end -0.535 -7.52) (layer F.Fab) (width 0.1))
  (fp_line (start -0.535 -7.52) (end -0.535 -7.72) (layer F.Fab) (width 0.1))
  (fp_line (start -0.535 -7.72) (end -0.735 -7.72) (layer F.Fab) (width 0.1))
  (fp_line (start 0.535 -7.72) (end 0.535 -7.52) (layer F.Fab) (width 0.1))
  (fp_line (start 0.535 -7.52) (end 0.735 -7.52) (layer F.Fab) (width 0.1))
  (fp_line (start 0.735 -7.52) (end 0.735 -7.72) (layer F.Fab) (width 0.1))
  (fp_line (start 0.735 -7.72) (end 0.535 -7.72) (layer F.Fab) (width 0.1))
  (fp_line (start -0.735 -6.45) (end -0.735 -6.25) (layer F.Fab) (width 0.1))
  (fp_line (start -0.735 -6.25) (end -0.535 -6.25) (layer F.Fab) (width 0.1))
  (fp_line (start -0.535 -6.25) (end -0.535 -6.45) (layer F.Fab) (width 0.1))
  (fp_line (start -0.535 -6.45) (end -0.735 -6.45) (layer F.Fab) (width 0.1))
  (fp_line (start 0.535 -6.45) (end 0.535 -6.25) (layer F.Fab) (width 0.1))
  (fp_line (start 0.535 -6.25) (end 0.735 -6.25) (layer F.Fab) (width 0.1))
  (fp_line (start 0.735 -6.25) (end 0.735 -6.45) (layer F.Fab) (width 0.1))
  (fp_line (start 0.735 -6.45) (end 0.535 -6.45) (layer F.Fab) (width 0.1))
  (fp_line (start -0.735 -5.18) (end -0.735 -4.98) (layer F.Fab) (width 0.1))
  (fp_line (start -0.735 -4.98) (end -0.535 -4.98) (layer F.Fab) (width 0.1))
  (fp_line (start -0.535 -4.98) (end -0.535 -5.18) (layer F.Fab) (width 0.1))
  (fp_line (start -0.535 -5.18) (end -0.735 -5.18) (layer F.Fab) (width 0.1))
  (fp_line (start 0.535 -5.18) (end 0.535 -4.98) (layer F.Fab) (width 0.1))
  (fp_line (start 0.535 -4.98) (end 0.735 -4.98) (layer F.Fab) (width 0.1))
  (fp_line (start 0.735 -4.98) (end 0.735 -5.18) (layer F.Fab) (width 0.1))
  (fp_line (start 0.735 -5.18) (end 0.535 -5.18) (layer F.Fab) (width 0.1))
  (fp_line (start -0.735 -3.91) (end -0.735 -3.71) (layer F.Fab) (width 0.1))
  (fp_line (start -0.735 -3.71) (end -0.535 -3.71) (layer F.Fab) (width 0.1))
  (fp_line (start -0.535 -3.71) (end -0.535 -3.91) (layer F.Fab) (width 0.1))
  (fp_line (start -0.535 -3.91) (end -0.735 -3.91) (layer F.Fab) (width 0.1))
  (fp_line (start 0.535 -3.91) (end 0.535 -3.71) (layer F.Fab) (width 0.1))
  (fp_line (start 0.535 -3.71) (end 0.735 -3.71) (layer F.Fab) (width 0.1))
  (fp_line (start 0.735 -3.71) (end 0.735 -3.91) (layer F.Fab) (width 0.1))
  (fp_line (start 0.735 -3.91) (end 0.535 -3.91) (layer F.Fab) (width 0.1))
  (fp_line (start -0.735 -2.64) (end -0.735 -2.44) (layer F.Fab) (width 0.1))
  (fp_line (start -0.735 -2.44) (end -0.535 -2.44) (layer F.Fab) (width 0.1))
  (fp_line (start -0.535 -2.44) (end -0.535 -2.64) (layer F.Fab) (width 0.1))
  (fp_line (start -0.535 -2.64) (end -0.735 -2.64) (layer F.Fab) (width 0.1))
  (fp_line (start 0.535 -2.64) (end 0.535 -2.44) (layer F.Fab) (width 0.1))
  (fp_line (start 0.535 -2.44) (end 0.735 -2.44) (layer F.Fab) (width 0.1))
  (fp_line (start 0.735 -2.44) (end 0.735 -2.64) (layer F.Fab) (width 0.1))
  (fp_line (start 0.735 -2.64) (end 0.535 -2.64) (layer F.Fab) (width 0.1))
  (fp_line (start -0.735 -1.37) (end -0.735 -1.17) (layer F.Fab) (width 0.1))
  (fp_line (start -0.735 -1.17) (end -0.535 -1.17) (layer F.Fab) (width 0.1))
  (fp_line (start -0.535 -1.17) (end -0.535 -1.37) (layer F.Fab) (width 0.1))
  (fp_line (start -0.535 -1.37) (end -0.735 -1.37) (layer F.Fab) (width 0.1))
  (fp_line (start 0.535 -1.37) (end 0.535 -1.17) (layer F.Fab) (width 0.1))
  (fp_line (start 0.535 -1.17) (end 0.735 -1.17) (layer F.Fab) (width 0.1))
  (fp_line (start 0.735 -1.17) (end 0.735 -1.37) (layer F.Fab) (width 0.1))
  (fp_line (start 0.735 -1.37) (end 0.535 -1.37) (layer F.Fab) (width 0.1))
  (fp_line (start -0.735 -0.1) (end -0.735 0.1) (layer F.Fab) (width 0.1))
  (fp_line (start -0.735 0.1) (end -0.535 0.1) (layer F.Fab) (width 0.1))
  (fp_line (start -0.535 0.1) (end -0.535 -0.1) (layer F.Fab) (width 0.1))
  (fp_line (start -0.535 -0.1) (end -0.735 -0.1) (layer F.Fab) (width 0.1))
  (fp_line (start 0.535 -0.1) (end 0.535 0.1) (layer F.Fab) (width 0.1))
  (fp_line (start 0.535 0.1) (end 0.735 0.1) (layer F.Fab) (width 0.1))
  (fp_line (start 0.735 0.1) (end 0.735 -0.1) (layer F.Fab) (width 0.1))
  (fp_line (start 0.735 -0.1) (end 0.535 -0.1) (layer F.Fab) (width 0.1))
  (fp_line (start -0.735 1.17) (end -0.735 1.37) (layer F.Fab) (width 0.1))
  (fp_line (start -0.735 1.37) (end -0.535 1.37) (layer F.Fab) (width 0.1))
  (fp_line (start -0.535 1.37) (end -0.535 1.17) (layer F.Fab) (width 0.1))
  (fp_line (start -0.535 1.17) (end -0.735 1.17) (layer F.Fab) (width 0.1))
  (fp_line (start 0.535 1.17) (end 0.535 1.37) (layer F.Fab) (width 0.1))
  (fp_line (start 0.535 1.37) (end 0.735 1.37) (layer F.Fab) (width 0.1))
  (fp_line (start 0.735 1.37) (end 0.735 1.17) (layer F.Fab) (width 0.1))
  (fp_line (start 0.735 1.17) (end 0.535 1.17) (layer F.Fab) (width 0.1))
  (fp_line (start -0.735 2.44) (end -0.735 2.64) (layer F.Fab) (width 0.1))
  (fp_line (start -0.735 2.64) (end -0.535 2.64) (layer F.Fab) (width 0.1))
  (fp_line (start -0.535 2.64) (end -0.535 2.44) (layer F.Fab) (width 0.1))
  (fp_line (start -0.535 2.44) (end -0.735 2.44) (layer F.Fab) (width 0.1))
  (fp_line (start 0.535 2.44) (end 0.535 2.64) (layer F.Fab) (width 0.1))
  (fp_line (start 0.535 2.64) (end 0.735 2.64) (layer F.Fab) (width 0.1))
  (fp_line (start 0.735 2.64) (end 0.735 2.44) (layer F.Fab) (width 0.1))
  (fp_line (start 0.735 2.44) (end 0.535 2.44) (layer F.Fab) (width 0.1))
  (fp_line (start -0.735 3.71) (end -0.735 3.91) (layer F.Fab) (width 0.1))
  (fp_line (start -0.735 3.91) (end -0.535 3.91) (layer F.Fab) (width 0.1))
  (fp_line (start -0.535 3.91) (end -0.535 3.71) (layer F.Fab) (width 0.1))
  (fp_line (start -0.535 3.71) (end -0.735 3.71) (layer F.Fab) (width 0.1))
  (fp_line (start 0.535 3.71) (end 0.535 3.91) (layer F.Fab) (width 0.1))
  (fp_line (start 0.535 3.91) (end 0.735 3.91) (layer F.Fab) (width 0.1))
  (fp_line (start 0.735 3.91) (end 0.735 3.71) (layer F.Fab) (width 0.1))
  (fp_line (start 0.735 3.71) (end 0.535 3.71) (layer F.Fab) (width 0.1))
  (fp_line (start -0.735 4.98) (end -0.735 5.18) (layer F.Fab) (width 0.1))
  (fp_line (start -0.735 5.18) (end -0.535 5.18) (layer F.Fab) (width 0.1))
  (fp_line (start -0.535 5.18) (end -0.535 4.98) (layer F.Fab) (width 0.1))
  (fp_line (start -0.535 4.98) (end -0.735 4.98) (layer F.Fab) (width 0.1))
  (fp_line (start 0.535 4.98) (end 0.535 5.18) (layer F.Fab) (width 0.1))
  (fp_line (start 0.535 5.18) (end 0.735 5.18) (layer F.Fab) (width 0.1))
  (fp_line (start 0.735 5.18) (end 0.735 4.98) (layer F.Fab) (width 0.1))
  (fp_line (start 0.735 4.98) (end 0.535 4.98) (layer F.Fab) (width 0.1))
  (fp_line (start -0.735 6.25) (end -0.735 6.45) (layer F.Fab) (width 0.1))
  (fp_line (start -0.735 6.45) (end -0.535 6.45) (layer F.Fab) (width 0.1))
  (fp_line (start -0.535 6.45) (end -0.535 6.25) (layer F.Fab) (width 0.1))
  (fp_line (start -0.535 6.25) (end -0.735 6.25) (layer F.Fab) (width 0.1))
  (fp_line (start 0.535 6.25) (end 0.535 6.45) (layer F.Fab) (width 0.1))
  (fp_line (start 0.535 6.45) (end 0.735 6.45) (layer F.Fab) (width 0.1))
  (fp_line (start 0.735 6.45) (end 0.735 6.25) (layer F.Fab) (width 0.1))
  (fp_line (start 0.735 6.25) (end 0.535 6.25) (layer F.Fab) (width 0.1))
  (fp_line (start -0.735 7.52) (end -0.735 7.72) (layer F.Fab) (width 0.1))
  (fp_line (start -0.735 7.72) (end -0.535 7.72) (layer F.Fab) (width 0.1))
  (fp_line (start -0.535 7.72) (end -0.535 7.52) (layer F.Fab) (width 0.1))
  (fp_line (start -0.535 7.52) (end -0.735 7.52) (layer F.Fab) (width 0.1))
  (fp_line (start 0.535 7.52) (end 0.535 7.72) (layer F.Fab) (width 0.1))
  (fp_line (start 0.535 7.72) (end 0.735 7.72) (layer F.Fab) (width 0.1))
  (fp_line (start 0.735 7.72) (end 0.735 7.52) (layer F.Fab) (width 0.1))
  (fp_line (start 0.735 7.52) (end 0.535 7.52) (layer F.Fab) (width 0.1))
  (fp_line (start -0.735 8.79) (end -0.735 8.99) (layer F.Fab) (width 0.1))
  (fp_line (start -0.735 8.99) (end -0.535 8.99) (layer F.Fab) (width 0.1))
  (fp_line (start -0.535 8.99) (end -0.535 8.79) (layer F.Fab) (width 0.1))
  (fp_line (start -0.535 8.79) (end -0.735 8.79) (layer F.Fab) (width 0.1))
  (fp_line (start 0.535 8.79) (end 0.535 8.99) (layer F.Fab) (width 0.1))
  (fp_line (start 0.535 8.99) (end 0.735 8.99) (layer F.Fab) (width 0.1))
  (fp_line (start 0.735 8.99) (end 0.735 8.79) (layer F.Fab) (width 0.1))
  (fp_line (start 0.735 8.79) (end 0.535 8.79) (layer F.Fab) (width 0.1))
  (fp_line (start -0.735 10.06) (end -0.735 10.26) (layer F.Fab) (width 0.1))
  (fp_line (start -0.735 10.26) (end -0.535 10.26) (layer F.Fab) (width 0.1))
  (fp_line (start -0.535 10.26) (end -0.535 10.06) (layer F.Fab) (width 0.1))
  (fp_line (start -0.535 10.06) (end -0.735 10.06) (layer F.Fab) (width 0.1))
  (fp_line (start 0.535 10.06) (end 0.535 10.26) (layer F.Fab) (width 0.1))
  (fp_line (start 0.535 10.26) (end 0.735 10.26) (layer F.Fab) (width 0.1))
  (fp_line (start 0.735 10.26) (end 0.735 10.06) (layer F.Fab) (width 0.1))
  (fp_line (start 0.735 10.06) (end 0.535 10.06) (layer F.Fab) (width 0.1))
  (fp_line (start -0.735 11.33) (end -0.735 11.53) (layer F.Fab) (width 0.1))
  (fp_line (start -0.735 11.53) (end -0.535 11.53) (layer F.Fab) (width 0.1))
  (fp_line (start -0.535 11.53) (end -0.535 11.33) (layer F.Fab) (width 0.1))
  (fp_line (start -0.535 11.33) (end -0.735 11.33) (layer F.Fab) (width 0.1))
  (fp_line (start 0.535 11.33) (end 0.535 11.53) (layer F.Fab) (width 0.1))
  (fp_line (start 0.535 11.53) (end 0.735 11.53) (layer F.Fab) (width 0.1))
  (fp_line (start 0.735 11.53) (end 0.735 11.33) (layer F.Fab) (width 0.1))
  (fp_line (start 0.735 11.33) (end 0.535 11.33) (layer F.Fab) (width 0.1))
  (fp_line (start -0.735 12.6) (end -0.735 12.8) (layer F.Fab) (width 0.1))
  (fp_line (start -0.735 12.8) (end -0.535 12.8) (layer F.Fab) (width 0.1))
  (fp_line (start -0.535 12.8) (end -0.535 12.6) (layer F.Fab) (width 0.1))
  (fp_line (start -0.535 12.6) (end -0.735 12.6) (layer F.Fab) (width 0.1))
  (fp_line (start 0.535 12.6) (end 0.535 12.8) (layer F.Fab) (width 0.1))
  (fp_line (start 0.535 12.8) (end 0.735 12.8) (layer F.Fab) (width 0.1))
  (fp_line (start 0.735 12.8) (end 0.735 12.6) (layer F.Fab) (width 0.1))
  (fp_line (start 0.735 12.6) (end 0.535 12.6) (layer F.Fab) (width 0.1))
  (fp_line (start -0.735 13.87) (end -0.735 14.07) (layer F.Fab) (width 0.1))
  (fp_line (start -0.735 14.07) (end -0.535 14.07) (layer F.Fab) (width 0.1))
  (fp_line (start -0.535 14.07) (end -0.535 13.87) (layer F.Fab) (width 0.1))
  (fp_line (start -0.535 13.87) (end -0.735 13.87) (layer F.Fab) (width 0.1))
  (fp_line (start 0.535 13.87) (end 0.535 14.07) (layer F.Fab) (width 0.1))
  (fp_line (start 0.535 14.07) (end 0.735 14.07) (layer F.Fab) (width 0.1))
  (fp_line (start 0.735 14.07) (end 0.735 13.87) (layer F.Fab) (width 0.1))
  (fp_line (start 0.735 13.87) (end 0.535 13.87) (layer F.Fab) (width 0.1))
  (fp_line (start -0.735 15.14) (end -0.735 15.34) (layer F.Fab) (width 0.1))
  (fp_line (start -0.735 15.34) (end -0.535 15.34) (layer F.Fab) (width 0.1))
  (fp_line (start -0.535 15.34) (end -0.535 15.14) (layer F.Fab) (width 0.1))
  (fp_line (start -0.535 15.14) (end -0.735 15.14) (layer F.Fab) (width 0.1))
  (fp_line (start 0.535 15.14) (end 0.535 15.34) (layer F.Fab) (width 0.1))
  (fp_line (start 0.535 15.34) (end 0.735 15.34) (layer F.Fab) (width 0.1))
  (fp_line (start 0.735 15.34) (end 0.735 15.14) (layer F.Fab) (width 0.1))
  (fp_line (start 0.735 15.14) (end 0.535 15.14) (layer F.Fab) (width 0.1))
  (fp_line (start -1.5 -16.875) (end -1.5 16.875) (layer F.Fab) (width 0.1))
  (fp_line (start -1.5 16.875) (end 0.3 16.875) (layer F.Fab) (width 0.1))
  (fp_line (start 0.3 16.875) (end 0.3 16.275) (layer F.Fab) (width 0.1))
  (fp_line (start 0.3 16.275) (end 1.5 16.275) (layer F.Fab) (width 0.1))
  (fp_line (start 1.5 16.275) (end 1.5 -16.275) (layer F.Fab) (width 0.1))
  (fp_line (start 1.5 -16.275) (end 0.3 -16.275) (layer F.Fab) (width 0.1))
  (fp_line (start 0.3 -16.275) (end 0.3 -16.875) (layer F.Fab) (width 0.1))
  (fp_line (start 0.3 -16.875) (end -1.5 -16.875) (layer F.Fab) (width 0.1))
  (fp_line (start 3.65 -15.74) (end 3.65 -16.51) (layer F.SilkS) (width 0.12))
  (fp_line (start 3.65 -14.74) (end 3.65 16.51) (layer F.SilkS) (width 0.12))
  (fp_line (start -3.65 16.51) (end -3.65 -16.51) (layer F.SilkS) (width 0.12))
  (fp_line (start 3.62 -15.24) (end 4.02 -15.64) (layer F.SilkS) (width 0.12))
  (fp_line (start 4.02 -15.64) (end 4.02 -14.84) (layer F.SilkS) (width 0.12))
  (fp_line (start 4.02 -14.84) (end 3.62 -15.24) (layer F.SilkS) (width 0.12))
  (fp_line (start -4.1 -18.91) (end 4.1 -18.91) (layer F.CrtYd) (width 0.05))
  (fp_line (start 4.1 -18.91) (end 4.1 18.91) (layer F.CrtYd) (width 0.05))
  (fp_line (start 4.1 18.91) (end -4.1 18.91) (layer F.CrtYd) (width 0.05))
  (fp_line (start -4.1 18.91) (end -4.1 -18.91) (layer F.CrtYd) (width 0.05))
  (pad 1 smd rect (at 2.75 -15.24) (size 1.1 0.8) (layers F.Cu F.Mask F.Paste))
  (pad 3 smd rect (at 2.75 -13.97) (size 1.1 0.8) (layers F.Cu F.Mask F.Paste))
  (pad 5 smd rect (at 2.75 -12.7) (size 1.1 0.8) (layers F.Cu F.Mask F.Paste))
  (pad 7 smd rect (at 2.75 -11.43) (size 1.1 0.8) (layers F.Cu F.Mask F.Paste))
  (pad 9 smd rect (at 2.75 -10.16) (size 1.1 0.8) (layers F.Cu F.Mask F.Paste))
  (pad 11 smd rect (at 2.75 -8.89) (size 1.1 0.8) (layers F.Cu F.Mask F.Paste))
  (pad 13 smd rect (at 2.75 -7.62) (size 1.1 0.8) (layers F.Cu F.Mask F.Paste))
  (pad 15 smd rect (at 2.75 -6.35) (size 1.1 0.8) (layers F.Cu F.Mask F.Paste))
  (pad 17 smd rect (at 2.75 -5.08) (size 1.1 0.8) (layers F.Cu F.Mask F.Paste))
  (pad 19 smd rect (at 2.75 -3.81) (size 1.1 0.8) (layers F.Cu F.Mask F.Paste))
  (pad 21 smd rect (at 2.75 -2.54) (size 1.1 0.8) (layers F.Cu F.Mask F.Paste))
  (pad 23 smd rect (at 2.75 -1.27) (size 1.1 0.8) (layers F.Cu F.Mask F.Paste))
  (pad 25 smd rect (at 2.75 0) (size 1.1 0.8) (layers F.Cu F.Mask F.Paste))
  (pad 27 smd rect (at 2.75 1.27) (size 1.1 0.8) (layers F.Cu F.Mask F.Paste))
  (pad 29 smd rect (at 2.75 2.54) (size 1.1 0.8) (layers F.Cu F.Mask F.Paste))
  (pad 31 smd rect (at 2.75 3.81) (size 1.1 0.8) (layers F.Cu F.Mask F.Paste))
  (pad 33 smd rect (at 2.75 5.08) (size 1.1 0.8) (layers F.Cu F.Mask F.Paste))
  (pad 35 smd rect (at 2.75 6.35) (size 1.1 0.8) (layers F.Cu F.Mask F.Paste))
  (pad 37 smd rect (at 2.75 7.62) (size 1.1 0.8) (layers F.Cu F.Mask F.Paste))
  (pad 39 smd rect (at 2.75 8.89) (size 1.1 0.8) (layers F.Cu F.Mask F.Paste))
  (pad 41 smd rect (at 2.75 10.16) (size 1.1 0.8) (layers F.Cu F.Mask F.Paste))
  (pad 43 smd rect (at 2.75 11.43) (size 1.1 0.8) (layers F.Cu F.Mask F.Paste))
  (pad 45 smd rect (at 2.75 12.7) (size 1.1 0.8) (layers F.Cu F.Mask F.Paste))
  (pad 47 smd rect (at 2.75 13.97) (size 1.1 0.8) (layers F.Cu F.Mask F.Paste))
  (pad 49 smd rect (at 2.75 15.24) (size 1.1 0.8) (layers F.Cu F.Mask F.Paste))
  (pad 2 smd rect (at -2.75 -15.24) (size 1.1 0.8) (layers F.Cu F.Mask F.Paste))
  (pad 4 smd rect (at -2.75 -13.97) (size 1.1 0.8) (layers F.Cu F.Mask F.Paste))
  (pad 6 smd rect (at -2.75 -12.7) (size 1.1 0.8) (layers F.Cu F.Mask F.Paste))
  (pad 8 smd rect (at -2.75 -11.43) (size 1.1 0.8) (layers F.Cu F.Mask F.Paste))
  (pad 10 smd rect (at -2.75 -10.16) (size 1.1 0.8) (layers F.Cu F.Mask F.Paste))
  (pad 12 smd rect (at -2.75 -8.89) (size 1.1 0.8) (layers F.Cu F.Mask F.Paste))
  (pad 14 smd rect (at -2.75 -7.62) (size 1.1 0.8) (layers F.Cu F.Mask F.Paste))
  (pad 16 smd rect (at -2.75 -6.35) (size 1.1 0.8) (layers F.Cu F.Mask F.Paste))
  (pad 18 smd rect (at -2.75 -5.08) (size 1.1 0.8) (layers F.Cu F.Mask F.Paste))
  (pad 20 smd rect (at -2.75 -3.81) (size 1.1 0.8) (layers F.Cu F.Mask F.Paste))
  (pad 22 smd rect (at -2.75 -2.54) (size 1.1 0.8) (layers F.Cu F.Mask F.Paste))
  (pad 24 smd rect (at -2.75 -1.27) (size 1.1 0.8) (layers F.Cu F.Mask F.Paste))
  (pad 26 smd rect (at -2.75 0) (size 1.1 0.8) (layers F.Cu F.Mask F.Paste))
  (pad 28 smd rect (at -2.75 1.27) (size 1.1 0.8) (layers F.Cu F.Mask F.Paste))
  (pad 30 smd rect (at -2.75 2.54) (size 1.1 0.8) (layers F.Cu F.Mask F.Paste))
  (pad 32 smd rect (at -2.75 3.81) (size 1.1 0.8) (layers F.Cu F.Mask F.Paste))
  (pad 34 smd rect (at -2.75 5.08) (size 1.1 0.8) (layers F.Cu F.Mask F.Paste))
  (pad 36 smd rect (at -2.75 6.35) (size 1.1 0.8) (layers F.Cu F.Mask F.Paste))
  (pad 38 smd rect (at -2.75 7.62) (size 1.1 0.8) (layers F.Cu F.Mask F.Paste))
  (pad 40 smd rect (at -2.75 8.89) (size 1.1 0.8) (layers F.Cu F.Mask F.Paste))
  (pad 42 smd rect (at -2.75 10.16) (size 1.1 0.8) (layers F.Cu F.Mask F.Paste))
  (pad 44 smd rect (at -2.75 11.43) (size 1.1 0.8) (layers F.Cu F.Mask F.Paste))
  (pad 46 smd rect (at -2.75 12.7) (size 1.1 0.8) (layers F.Cu F.Mask F.Paste))
  (pad 48 smd rect (at -2.75 13.97) (size 1.1 0.8) (layers F.Cu F.Mask F.Paste))
  (pad 50 smd rect (at -2.75 15.24) (size 1.1 0.8) (layers F.Cu F.Mask F.Paste))
  (pad "" np_thru_hole circle (at 0 -17.45) (size 1.65 1.65) (drill 1.65) (layers *.Cu *.Mask))
  (pad "" np_thru_hole circle (at 0 17.45) (size 1.65 1.65) (drill 1.65) (layers *.Cu *.Mask))
  (pad "" smd rect (at 2.45 -17.735) (size 2.7 1.2) (layers F.Cu F.Mask F.Paste))
  (pad "" smd rect (at -2.45 -17.735) (size 2.7 1.2) (layers F.Cu F.Mask F.Paste))
  (pad "" smd rect (at 2.45 17.735) (size 2.7 1.2) (layers F.Cu F.Mask F.Paste))
  (pad "" smd rect (at -2.45 17.735) (size 2.7 1.2) (layers F.Cu F.Mask F.Paste))
  (fp_text user %R (at 2.9 0 90) (layer F.Fab)
    (effects (font (size 1 1) (thickness 0.15)))
  )
  (model ${KISYS3DMOD}/Connector_Harwin.3dshapes/Harwin_M55-70x5042R_2x25_P1.27mm_Vertical.wrl
    (at (xyz 0 0 0))
    (scale (xyz 1 1 1))
    (rotate (xyz 0 0 0))
  )
)